Removed Member From Class: ClassName=arm-stm32-stack Member=Con1
Removed Member From Class: ClassName=arm-stm32-stack Member=LED1
Removed Member From Class: ClassName=arm-stm32-stack Member=U2
Change Component Designator: OldDesignator=U2 NewDesignator=U1
