Change Component Designator: Old Designator=Con? New Designator=Con1
Change Component Designator: Old Designator=LED? New Designator=LED1
Change Component Designator: Old Designator=SW? New Designator=SW1
Change Component Designator: Old Designator=U? New Designator=U1
