Removed Pin From Net: NetName=NetCON1_A5 Pin=R1-1
Removed Pin From Net: NetName=PA10 Pin=R1-2
Removed Pin From Net: NetName=+3.3V Pin=R2-1
Removed Pin From Net: NetName=NetCON1_B5 Pin=R3-1
Removed Pin From Net: NetName=PA10 Pin=R3-2
Removed Pin From Net: NetName=NetCON1_A6 Pin=R4-1
Removed Pin From Net: NetName=PA12 Pin=R4-2
Removed Pin From Net: NetName=NetCON1_A7 Pin=R5-1
Removed Pin From Net: NetName=PA11 Pin=R5-2
Removed Pin From Net: NetName=NetCON1_A4 Pin=R6-1
Removed Pin From Net: NetName=PA9 Pin=R6-2
Removed Pin From Net: NetName=PB2-BOOT1-MMA Pin=R7-1
Removed Pin From Net: NetName=GND Pin=R7-2
Removed Pin From Net: NetName=GND Pin=R8-1
Removed Pin From Net: NetName=GND Pin=R9-1
Removed Pin From Net: NetName=RST Pin=R10-2
Change Component Footprint: Designator=R1 Old Footprint=RES-SMD-0603 New Footprint=0603 Resitor
Change Component Footprint: Designator=R2 Old Footprint=RES-SMD-0603 New Footprint=0603 Resitor
Change Component Footprint: Designator=R3 Old Footprint=RES-SMD-0603 New Footprint=0603 Resitor
Change Component Footprint: Designator=R4 Old Footprint=RES-SMD-0603 New Footprint=0603 Resitor
Change Component Footprint: Designator=R5 Old Footprint=RES-SMD-0603 New Footprint=0603 Resitor
Change Component Footprint: Designator=R6 Old Footprint=RES-SMD-0603 New Footprint=0603 Resitor
Change Component Footprint: Designator=R7 Old Footprint=RES-SMD-0603 New Footprint=0603 Resitor
Change Component Footprint: Designator=R8 Old Footprint=RES-SMD-0603 New Footprint=0603 Resitor
Change Component Footprint: Designator=R9 Old Footprint=RES-SMD-0603 New Footprint=0603 Resitor
Change Component Footprint: Designator=R10 Old Footprint=RES-SMD-0603 New Footprint=0603 Resitor
Change Component Comment : Designator=R2 Old Comment=22R New Comment=Resitor
Change Component Comment : Designator=R4 Old Comment=22R New Comment=Resitor
Change Component Comment : Designator=R5 Old Comment=22R New Comment=Resitor
Change Component Comment : Designator=R6 Old Comment=22R New Comment=Resitor
Change Component Comment : Designator=R7 Old Comment=22R New Comment=Resitor
Change Component Comment : Designator=R8 Old Comment=22R New Comment=Resitor
Change Component Comment : Designator=R9 Old Comment=22R New Comment=Resitor
Change Component Comment : Designator=R10 Old Comment=22R New Comment=Resitor
Change Component Comment : Designator=R1 Old Comment=560R New Comment=Resitor
Change Component Comment : Designator=R3 Old Comment=560R New Comment=Resitor
Change Component Designator: OldDesignator=LED2 NewDesignator=LED1
Change Component Designator: OldDesignator=U1 NewDesignator=U3
Change Component Designator: OldDesignator=U2 NewDesignator=U4
Change Component Designator: OldDesignator=U3 NewDesignator=U1
Change Component Designator: OldDesignator=U4 NewDesignator=U2
Change component parameters: Designator = "R1"; Footprint = "0603 Resitor"; UniqueID = "\SJMURWKS"
Change component parameters. Clean all parameters for all variants
Change component parameters: Designator = "R2"; Footprint = "0603 Resitor"; UniqueID = "\TVCVJOSF"
Change component parameters. Clean all parameters for all variants
Change component parameters: Designator = "R3"; Footprint = "0603 Resitor"; UniqueID = "\VIMZUBWU"
Change component parameters. Clean all parameters for all variants
Change component parameters: Designator = "R4"; Footprint = "0603 Resitor"; UniqueID = "\QBEPNOVX"
Change component parameters. Clean all parameters for all variants
Change component parameters: Designator = "R5"; Footprint = "0603 Resitor"; UniqueID = "\EEZDGTRI"
Change component parameters. Clean all parameters for all variants
Change component parameters: Designator = "R6"; Footprint = "0603 Resitor"; UniqueID = "\AXKBOFWF"
Change component parameters. Clean all parameters for all variants
Change component parameters: Designator = "R7"; Footprint = "0603 Resitor"; UniqueID = "\FUFILIQY"
Change component parameters. Clean all parameters for all variants
Change component parameters: Designator = "R8"; Footprint = "0603 Resitor"; UniqueID = "\NCJVXWDN"
Change component parameters. Clean all parameters for all variants
Change component parameters: Designator = "R9"; Footprint = "0603 Resitor"; UniqueID = "\MCWAUPZI"
Change component parameters. Clean all parameters for all variants
Change component parameters: Designator = "R10"; Footprint = "0603 Resitor"; UniqueID = "\EDVYIZLY"
Change component parameters. Clean all parameters for all variants
Added Component: Designator=R11(0603 Resitor)
Add component. Clean all parameters for all variants
Added Pin To Net: NetName=GND Pin=CON1-1
Added Pin To Net: NetName=GND Pin=CON1-2
Added Pin To Net: NetName=GND Pin=CON1-3
Added Pin To Net: NetName=GND Pin=CON1-4
Added Pin To Net: NetName=PB2-BOOT1-MMA Pin=R1-1
Added Pin To Net: NetName=GND Pin=R1-2
Added Pin To Net: NetName=PA10 Pin=R2-1
Added Pin To Net: NetName=NetCON1_A5 Pin=R2-2
Added Pin To Net: NetName=GND Pin=R3-2
Added Pin To Net: NetName=PA10 Pin=R4-1
Added Pin To Net: NetName=NetCON1_B5 Pin=R4-2
Added Pin To Net: NetName=PA12 Pin=R5-1
Added Pin To Net: NetName=NetCON1_A6 Pin=R5-2
Added Pin To Net: NetName=PA11 Pin=R6-1
Added Pin To Net: NetName=NetCON1_A7 Pin=R6-2
Added Pin To Net: NetName=PA9 Pin=R7-1
Added Pin To Net: NetName=NetCON1_A4 Pin=R7-2
Added Pin To Net: NetName=GND Pin=R9-2
Added Pin To Net: NetName=RST Pin=R11-1
Added Pin To Net: NetName=+3.3V Pin=R11-2
Change Net Name : Old Net Name=NetCON1_A4 New Net Name=VBUS
Change Net Name : Old Net Name=NetU3_5 New Net Name=NetU1_5
Change Net Name : Old Net Name=NetU3_6 New Net Name=NetU1_6
Added Pin To Net: NetName=NetLED1_1 Pin=LED1-1
Added Pin To Net: NetName=NetLED1_1 Pin=R10-2
Added Net: Name=NetLED1_1
Added Pin To Net: NetName=NetR3_1 Pin=R3-1
Added Pin To Net: NetName=NetR3_1 Pin=U1-57
Added Net: Name=NetR3_1
Added Pin To Net: NetName=NetR9_1 Pin=R9-1
Added Pin To Net: NetName=NetR9_1 Pin=U1-60
Added Net: Name=NetR9_1
Added Member To Class: ClassName=arm-stm32-stack Member=Component R2 Resitor
Added Member To Class: ClassName=arm-stm32-stack Member=Component R3 Resitor
Added Member To Class: ClassName=arm-stm32-stack Member=Component R4 Resitor
Added Member To Class: ClassName=arm-stm32-stack Member=Component R5 Resitor
Added Member To Class: ClassName=arm-stm32-stack Member=Component R7 Resitor
Added Member To Class: ClassName=arm-stm32-stack Member=Component R8 Resitor
Added Member To Class: ClassName=arm-stm32-stack Member=Component R11 Resitor
Added Member To Class: ClassName=arm-stm32-stack Member=Component SW1 Switch SMD 2P
