Change Component Designator: OldDesignator=U3 NewDesignator=U4
Added Component: Designator=R1(RES-SMD-0603)
Add component. Clean all parameters for all variants
Add component (AddParameter): Name = "Class"; Value = "Passive"; VariantName = "[No Variations]"
Add component (AddParameter): Name = "Manufacturer"; Value = "Generic Components"; VariantName = "[No Variations]"
Add component (AddParameter): Name = "Published"; Value = "08/06/2000"; VariantName = "[No Variations]"
Add component (AddParameter): Name = "Publisher"; Value = "Altium Hobart Technology Centre"; VariantName = "[No Variations]"
Added Component: Designator=R2(RES-SMD-0603)
Add component. Clean all parameters for all variants
Add component (AddParameter): Name = "Class"; Value = "Passive"; VariantName = "[No Variations]"
Add component (AddParameter): Name = "Manufacturer"; Value = "Generic Components"; VariantName = "[No Variations]"
Add component (AddParameter): Name = "Published"; Value = "08/06/2000"; VariantName = "[No Variations]"
Add component (AddParameter): Name = "Publisher"; Value = "Altium Hobart Technology Centre"; VariantName = "[No Variations]"
Added Component: Designator=U3(MicroSD)
Add component. Clean all parameters for all variants
Added Pin To Net: NetName=+3.3V Pin=Con2-5
Added Pin To Net: NetName=+3.3V Pin=Con2-6
Added Pin To Net: NetName=+3.3V Pin=Con2-7
Added Pin To Net: NetName=+3.3V Pin=Con2-8
Added Pin To Net: NetName=+3.3V Pin=U4-13
Added Pin To Net: NetName=+3.3V Pin=U4-19
Added Pin To Net: NetName=+3.3V Pin=U4-32
Added Pin To Net: NetName=+3.3V Pin=U4-48
Added Pin To Net: NetName=+3.3V Pin=U4-64
Added Net: Name=+3.3V
Added Pin To Net: NetName=+5 Pin=Con2-1
Added Pin To Net: NetName=+5 Pin=Con2-2
Added Pin To Net: NetName=+5 Pin=Con2-3
Added Pin To Net: NetName=+5 Pin=Con2-4
Added Net: Name=+5
Added Pin To Net: NetName=CAN-H Pin=Con2-14
Added Net: Name=CAN-H
Added Pin To Net: NetName=CAN-L Pin=Con2-13
Added Net: Name=CAN-L
Added Pin To Net: NetName=GND Pin=CON1-A1
Added Pin To Net: NetName=GND Pin=CON1-A12
Added Pin To Net: NetName=GND Pin=CON1-B1
Added Pin To Net: NetName=GND Pin=CON1-B12
Added Pin To Net: NetName=GND Pin=Con2-9
Added Pin To Net: NetName=GND Pin=Con2-10
Added Pin To Net: NetName=GND Pin=Con2-11
Added Pin To Net: NetName=GND Pin=Con2-12
Added Pin To Net: NetName=GND Pin=Con2-49
Added Pin To Net: NetName=GND Pin=U4-12
Added Pin To Net: NetName=GND Pin=U4-18
Added Pin To Net: NetName=GND Pin=U4-63
Added Net: Name=GND
Added Pin To Net: NetName=NetCON1_A6 Pin=CON1-A6
Added Pin To Net: NetName=NetCON1_A6 Pin=CON1-B6
Added Pin To Net: NetName=NetCON1_A6 Pin=R1-1
Added Net: Name=NetCON1_A6
Added Pin To Net: NetName=NetCON1_A7 Pin=CON1-A7
Added Pin To Net: NetName=NetCON1_A7 Pin=CON1-B7
Added Pin To Net: NetName=NetCON1_A7 Pin=R2-1
Added Net: Name=NetCON1_A7
Added Pin To Net: NetName=NetU4_3 Pin=U4-3
Added Pin To Net: NetName=NetU4_3 Pin=Y1-2
Added Net: Name=NetU4_3
Added Pin To Net: NetName=NetU4_4 Pin=U4-4
Added Pin To Net: NetName=NetU4_4 Pin=Y1-1
Added Net: Name=NetU4_4
Added Pin To Net: NetName=RST Pin=Con2-50
Added Net: Name=RST
Added Member To Class: ClassName=arm-stm32-stack Member=Component CON1 USB TypeC 16 Pin SMD
Added Member To Class: ClassName=arm-stm32-stack Member=Component R1 22R
Added Member To Class: ClassName=arm-stm32-stack Member=Component R2 22R
Added Member To Class: ClassName=arm-stm32-stack Member=Component U4 STM32F405RGT6
