Removed Pin From Net: NetName=VBAT Pin=BT1-1
Removed Pin From Net: NetName=GND Pin=BT1-2
Removed Member From Class: ClassName=arm-stm32-stack Member=BT1
Added Member To Class: ClassName=arm-stm32-stack Member=Component C5 SMD cap
Added Member To Class: ClassName=arm-stm32-stack Member=Component C6 SMD cap
Added Member To Class: ClassName=arm-stm32-stack Member=Component C7 SMD cap
Added Member To Class: ClassName=arm-stm32-stack Member=Component C8 SMD cap
Added Member To Class: ClassName=arm-stm32-stack Member=Component C9 SMD cap
