Removed Pin From Net: NetName=PB13 Pin=Con1-13
Removed Pin From Net: NetName=PB12 Pin=Con1-14
Removed Pin From Net: NetName=PB15 Pin=Con1-15
Removed Pin From Net: NetName=PB14 Pin=Con1-16
Removed Pin From Net: NetName=PC7 Pin=Con1-17
Removed Pin From Net: NetName=PC6 Pin=Con1-18
Removed Pin From Net: NetName=PA13-RED-P5 Pin=Con1-19
Removed Pin From Net: NetName=PA14-GRN-P4 Pin=Con1-20
Removed Pin From Net: NetName=PA15-YEL-P3 Pin=Con1-21
Removed Pin From Net: NetName=PB3-SW-X17 Pin=Con1-22
Removed Pin From Net: NetName=PB4-BLU-P2 Pin=Con1-23
Removed Pin From Net: NetName=PB7-SDA-X10 Pin=Con1-24
Removed Pin From Net: NetName=PB6-SCL-X9 Pin=Con1-25
Removed Pin From Net: NetName=CANTX Pin=Con1-26
Removed Pin From Net: NetName=PB8 Pin=Con1-27
Removed Pin From Net: NetName=PC13 Pin=Con1-28
Removed Pin From Net: NetName=PC0 Pin=Con1-29
Removed Pin From Net: NetName=PC1 Pin=Con1-30
Removed Pin From Net: NetName=PC2 Pin=Con1-31
Removed Pin From Net: NetName=PC3 Pin=Con1-32
Removed Pin From Net: NetName=PA0 Pin=Con1-33
Removed Pin From Net: NetName=PA1 Pin=Con1-34
Removed Pin From Net: NetName=PA2 Pin=Con1-35
Removed Pin From Net: NetName=PA3 Pin=Con1-36
Removed Pin From Net: NetName=PA4 Pin=Con1-37
Removed Pin From Net: NetName=PA5 Pin=Con1-38
Removed Pin From Net: NetName=PA6 Pin=Con1-39
Removed Pin From Net: NetName=PA7 Pin=Con1-40
Removed Pin From Net: NetName=PC4 Pin=Con1-41
Removed Pin From Net: NetName=PC5 Pin=Con1-42
Removed Pin From Net: NetName=PB0 Pin=Con1-43
Removed Pin From Net: NetName=PB1 Pin=Con1-44
Removed Pin From Net: NetName=PB11 Pin=Con1-45
Removed Pin From Net: NetName=CANRX Pin=Con1-46
Removed Pin From Net: NetName=CAN-L Pin=Con1-47
Removed Pin From Net: NetName=CAN-H Pin=Con1-48
Removed Pin From Net: NetName=VBAT Pin=Con1-49
Removed Pin From Net: NetName=RST Pin=Con1-50
Added Pin To Net: NetName=PB12 Pin=Con1-13
Added Pin To Net: NetName=PB13 Pin=Con1-14
Added Pin To Net: NetName=PB14 Pin=Con1-15
Added Pin To Net: NetName=PB15 Pin=Con1-16
Added Pin To Net: NetName=PC6 Pin=Con1-17
Added Pin To Net: NetName=PC7 Pin=Con1-18
Added Pin To Net: NetName=PA14-GRN-P4 Pin=Con1-19
Added Pin To Net: NetName=PA13-RED-P5 Pin=Con1-20
Added Pin To Net: NetName=PB3-SW-X17 Pin=Con1-21
Added Pin To Net: NetName=PA15-YEL-P3 Pin=Con1-22
Added Pin To Net: NetName=PB7-SDA-X10 Pin=Con1-23
Added Pin To Net: NetName=PB4-BLU-P2 Pin=Con1-24
Added Pin To Net: NetName=CANTX Pin=Con1-25
Added Pin To Net: NetName=PB6-SCL-X9 Pin=Con1-26
Added Pin To Net: NetName=PC13 Pin=Con1-27
Added Pin To Net: NetName=PB8 Pin=Con1-28
Added Pin To Net: NetName=PC1 Pin=Con1-29
Added Pin To Net: NetName=PC0 Pin=Con1-30
Added Pin To Net: NetName=PC3 Pin=Con1-31
Added Pin To Net: NetName=PC2 Pin=Con1-32
Added Pin To Net: NetName=PA1 Pin=Con1-33
Added Pin To Net: NetName=PA0 Pin=Con1-34
Added Pin To Net: NetName=PA3 Pin=Con1-35
Added Pin To Net: NetName=PA2 Pin=Con1-36
Added Pin To Net: NetName=PA5 Pin=Con1-37
Added Pin To Net: NetName=PA4 Pin=Con1-38
Added Pin To Net: NetName=PA7 Pin=Con1-39
Added Pin To Net: NetName=PA6 Pin=Con1-40
Added Pin To Net: NetName=PC5 Pin=Con1-41
Added Pin To Net: NetName=PC4 Pin=Con1-42
Added Pin To Net: NetName=PB1 Pin=Con1-43
Added Pin To Net: NetName=PB0 Pin=Con1-44
Added Pin To Net: NetName=CANRX Pin=Con1-45
Added Pin To Net: NetName=PB11 Pin=Con1-46
Added Pin To Net: NetName=CAN-H Pin=Con1-47
Added Pin To Net: NetName=CAN-L Pin=Con1-48
Added Pin To Net: NetName=RST Pin=Con1-49
Added Pin To Net: NetName=VBAT Pin=Con1-50
Added Member To Class: ClassName=arm-stm32-stack Member=Component C18 SMD cap
Added Member To Class: ClassName=arm-stm32-stack Member=Component C20 SMD cap
Added Member To Class: ClassName=arm-stm32-stack Member=Component Con1 Header 25x2
Added Member To Class: ClassName=arm-stm32-stack Member=Component R19 Resitor
Added Member To Class: ClassName=arm-stm32-stack Member=Component R20 Resitor
Added Member To Class: ClassName=arm-stm32-stack Member=Component R22 Resitor
Added Member To Class: ClassName=arm-stm32-stack Member=Component SW1 Switch SMD 2P
Added Member To Class: ClassName=arm-stm32-stack Member=Component U4 MicroSD 9pin detect pin
