Change Component Designator: OldDesignator=U3 NewDesignator=U4
Change Component Designator: OldDesignator=U4 NewDesignator=U3
Added Pin To Net: NetName=+3.3V Pin=Con2-6
Added Pin To Net: NetName=+3.3V Pin=Con2-8
Added Pin To Net: NetName=RST Pin=U3-7
Added Pin To Net: NetName=NetU3_5 Pin=U3-5
Added Pin To Net: NetName=NetU3_5 Pin=Y1-1
Added Net: Name=NetU3_5
Added Pin To Net: NetName=NetU3_6 Pin=U3-6
Added Pin To Net: NetName=NetU3_6 Pin=Y1-2
Added Net: Name=NetU3_6
Added Pin To Net: NetName=PA8 Pin=U4-9
Added Net: Name=PA8
Added Pin To Net: NetName=PA9 Pin=Con2-19
Added Pin To Net: NetName=PA9 Pin=U3-42
Added Net: Name=PA9
Added Pin To Net: NetName=PA10 Pin=Con2-20
Added Pin To Net: NetName=PA10 Pin=U3-43
Added Net: Name=PA10
Added Pin To Net: NetName=PA11 Pin=Con2-21
Added Pin To Net: NetName=PA11 Pin=U3-44
Added Net: Name=PA11
Added Pin To Net: NetName=PA12 Pin=Con2-22
Added Pin To Net: NetName=PA12 Pin=U3-45
Added Net: Name=PA12
Added Pin To Net: NetName=PA13 Pin=Con2-23
Added Pin To Net: NetName=PA13 Pin=U3-46
Added Net: Name=PA13
Added Pin To Net: NetName=PA14 Pin=Con2-24
Added Pin To Net: NetName=PA14 Pin=U3-49
Added Net: Name=PA14
Added Pin To Net: NetName=PA15 Pin=Con2-25
Added Pin To Net: NetName=PA15 Pin=U3-50
Added Net: Name=PA15
Added Pin To Net: NetName=PB3 Pin=Con2-26
Added Pin To Net: NetName=PB3 Pin=U3-55
Added Net: Name=PB3
Added Pin To Net: NetName=PB4 Pin=Con2-27
Added Pin To Net: NetName=PB4 Pin=U3-56
Added Net: Name=PB4
Added Pin To Net: NetName=PB5 Pin=Con2-28
Added Pin To Net: NetName=PB5 Pin=U3-57
Added Net: Name=PB5
Added Pin To Net: NetName=PB6 Pin=Con2-29
Added Pin To Net: NetName=PB6 Pin=U3-58
Added Net: Name=PB6
Added Pin To Net: NetName=PB7 Pin=Con2-30
Added Pin To Net: NetName=PB7 Pin=U3-59
Added Net: Name=PB7
Added Pin To Net: NetName=PB8 Pin=Con2-31
Added Pin To Net: NetName=PB8 Pin=U3-61
Added Net: Name=PB8
Added Pin To Net: NetName=PB9 Pin=Con2-32
Added Pin To Net: NetName=PB9 Pin=U3-62
Added Net: Name=PB9
Added Pin To Net: NetName=PB12 Pin=Con2-14
Added Pin To Net: NetName=PB12 Pin=U3-33
Added Net: Name=PB12
Added Pin To Net: NetName=PB13 Pin=Con2-13
Added Pin To Net: NetName=PB13 Pin=U3-34
Added Net: Name=PB13
Added Pin To Net: NetName=PB14 Pin=Con2-16
Added Pin To Net: NetName=PB14 Pin=U3-35
Added Net: Name=PB14
Added Pin To Net: NetName=PB15 Pin=Con2-15
Added Pin To Net: NetName=PB15 Pin=U3-36
Added Net: Name=PB15
Added Pin To Net: NetName=PC6 Pin=Con2-18
Added Pin To Net: NetName=PC6 Pin=U3-37
Added Net: Name=PC6
Added Pin To Net: NetName=PC7 Pin=Con2-17
Added Pin To Net: NetName=PC7 Pin=U3-38
Added Net: Name=PC7
Added Pin To Net: NetName=PC8 Pin=U4-7
Added Net: Name=PC8
Added Pin To Net: NetName=PC9 Pin=U4-8
Added Net: Name=PC9
Added Pin To Net: NetName=PC10 Pin=U4-1
Added Net: Name=PC10
Added Pin To Net: NetName=PC11 Pin=U4-2
Added Net: Name=PC11
Added Pin To Net: NetName=PC12 Pin=U4-5
Added Net: Name=PC12
Added Pin To Net: NetName=PD2 Pin=U4-3
Added Net: Name=PD2
Added Member To Class: ClassName=arm-stm32-stack Member=Component R1 22R
Added Member To Class: ClassName=arm-stm32-stack Member=Component R2 22R
